sku,magmi:delete
6229,1
6231,1
6248,1
6273,1
6221,1
2125,1
6279,1
5418,1
166,1
8724,1
8727,1
8728,1
8729,1
8730,1
8731,1
8736,1
8737,1
8738,1
8739,1
8740,1
8742,1
8743,1
8744,1
8745,1
8746,1
8747,1
8748,1
8749,1
8750,1
8753,1
8754,1
12962,1
2383,1
2384,1
2385,1
4591,1
14204,1
14205,1
14207,1
14208,1
14209,1
14210,1
14211,1
14212,1
14214,1
14215,1
14437,1
14782,1
14784,1
14792,1
15087,1
15091,1
15095,1
15096,1
15097,1
15107,1
15109,1
15110,1
15112,1
15113,1
15114,1
15119,1
1717,1
1721,1
1728,1
4173,1
4761,1
9630,1
12329,1
12654,1
13963,1
21162,1
21937,1
22651,1
14682,1
4933,1
9432,1
12441,1
12446,1
12453,1
12454,1
12455,1
12458,1
13345,1
13346,1
13349,1
13353,1
92,1
93,1
9758,1
9464,1
9634,1
9635,1
9660,1
9663,1
9665,1
9666,1
9669,1
9670,1
9671,1
9672,1
9673,1
9674,1
20364,1
20619,1
6514,1
5366,1
51,1
52,1
4923,1
4929,1
21989,1
22923,1
22922,1
22933,1
7373,1
20190,1
16527,1
22926,1
22937,1
22941,1
929,1
12739,1
18354,1
394,1
396,1
398,1
400,1
412,1
12250,1
12255,1
15237,1
16437,1
1510,1
1511,1
1512,1
14075,1
20613,1
21317,1
4146,1
19547,1
21449,1
19730,1
21083,1
13295,1
13297,1
531,1
532,1
970,1
1546,1
2429,1
2430,1
2431,1
4526,1
5432,1
7586,1
8127,1
9158,1
9159,1
9261,1
10531,1
10532,1
10538,1
10545,1
11199,1
11200,1
11203,1
11204,1
11211,1
11442,1
11976,1
12318,1
13300,1
13355,1
14394,1
20450,1
21608,1
22604,1
14046,1
14047,1
14050,1
14052,1
14053,1
14054,1
14055,1
14057,1
6603,1
6604,1
453,1
2143,1
21328,1
417,1
13019,1
18656,1
667,1
8577,1
13803,1
20966,1
619,1
1520,1
1522,1
5417,1
14873,1
16443,1
20154,1
20155,1
14861,1
14871,1
14872,1
625,1
8207,1
3230,1
3231,1
3232,1
3233,1
8783,1
8784,1
8785,1
8786,1
14870,1
14710,1
5903,1
13830,1
13831,1
13832,1
13834,1
3306,1
11013,1
13974,1
19312,1
20825,1
20826,1
12860,1
22060,1
3238,1
3240,1
3241,1
22061,1
22059,1
22063,1
1817,1
1819,1
22066,1
2111,1
2112,1
2115,1
3196,1
3197,1
3204,1
3212,1
3213,1
3239,1
3244,1
3247,1
3303,1
8767,1
8768,1
12030,1
12034,1
12201,1
18860,1
3186,1
5528,1
174,1
1747,1
1749,1
1752,1
1754,1
1758,1
1761,1
1763,1
1810,1
1812,1
1822,1
1823,1
1824,1
1825,1
1830,1
1855,1
1837,1
1647,1
1648,1
1856,1
1858,1
1860,1
1870,1
2824,1
4596,1
5488,1
5489,1
5490,1
5491,1
5492,1
5493,1
5508,1
5511,1
5512,1
5515,1
5518,1
5526,1
5531,1
5532,1
5529,1
5547,1
5548,1
11978,1
11986,1
11991,1
12005,1
12020,1
12051,1
12068,1
12079,1
14806,1
14807,1
14811,1
21616,1
21657,1
21942,1
21947,1
22072,1
22077,1
22078,1
22079,1
22096,1
22099,1
22103,1
22132,1
1894,1
3190,1
21990,1
21991,1
21996,1
21997,1
21999,1
1750,1
1756,1
1759,1
1764,1
1765,1
1772,1
1827,1
1831,1
1646,1
1876,1
2699,1
2702,1
2703,1
2922,1
2896,1
4600,1
5516,1
11865,1
11995,1
12101,1
12106,1
18709,1
21619,1
22114,1
22121,1
22122,1
22143,1
22146,1
22150,1
197,1
1768,1
2695,1
2696,1
2697,1
3236,1
6526,1
7524,1
12867,1
1802,1
1803,1
22094,1
11822,1
11823,1
11825,1
11826,1
11869,1
11870,1
11871,1
11872,1
11873,1
11874,1
11875,1
11878,1
11879,1
11880,1
11881,1
11882,1
11884,1
11885,1
1875,1
1877,1
2685,1
2686,1
3184,1
3209,1
3243,1
3248,1
5535,1
6522,1
12014,1
12027,1
12964,1
22124,1
22125,1
22126,1
1871,1
5497,1
5500,1
5544,1
21617,1
21941,1
3173,1
12810,1
12812,1
12813,1
12816,1
12819,1
12827,1
12850,1
12909,1
12911,1
1828,1
12822,1
236,1
237,1
238,1
242,1
243,1
244,1
250,1
262,1
263,1
286,1
293,1
294,1
304,1
860,1
21106,1
234,1
248,1
256,1
257,1
266,1
269,1
303,1
3312,1
3317,1
506,1
21139,1
3187,1
3188,1
3252,1
3253,1
3255,1
3257,1
3259,1
1895,1
3207,1
3219,1
3223,1
3301,1
4920,1
7497,1
14656,1
14658,1
14660,1
14661,1
14662,1
14663,1
14665,1
14670,1
14671,1
14673,1
14675,1
14678,1
14679,1
14680,1
14681,1
14683,1
14687,1
14689,1
14690,1
14691,1
14692,1
14693,1
22602,1
19250,1
19261,1
19352,1
19354,1
5900,1
5911,1
8259,1
22433,1
734,1
21471,1
828,1
6759,1
1393,1
13969,1
15674,1
17248,1
14755,1
21145,1
21245,1
22294,1
22295,1
2386,1
2427,1
280,1
287,1
7300,1
19671,1
288,1
11441,1
15493,1
16463,1
